{
  "name": "Float Button Link",
  "identifier": "floatbuttonlink",
  "description": {
    "es-ES": "",
    "en-US": ""
  },
  "documentation": {
    "es-ES": "modules/floatbuttonlink/docs/es_ES.md",
    "en-US": "modules/floatbuttonlink/docs/en_US.md"
  },
  "descriptionShort": {
    "es-ES": "",
    "en-US": ""
  },
  "icon": "room",
  "type": "A",
  "version": "0.0.2",
  "author": "Kingofapp",
  "category": [
    "module",
    "link",
    "float"
  ],
  "price": 0,
  "subscription": false,
  "canContain": true,
  "platforms": [
    "android",
    "ios",
    "windows"
  ],
  "view": "modules/floatbuttonlink/index.html",
  "files": [
    "modules/floatbuttonlink/controller.js",
    "modules/floatbuttonlink/style.html"
  ],
  "scope": {
    "menuItems": [],
    "top": 0,
    "bottom": 20,
    "left": 0,
    "right": 20
  },
  "libs": [],
  "config": [
    {
      "type": "repeatSection",
      "key": "menuItems",
      "templateOptions": {
        "label": "Items",
        "btnText": "Add another item to the menu",
        "fields": [
          {
            "type": "select",
            "key": "path",
            "templateOptions": {
              "label": "Path",
              "required": true
            }
          }
        ]
      }
    },
    {
      "type": "input",
      "key": "top",
      "templateOptions": {
        "type": "number",
        "label": "Move the button from top",
        "description": "Add space between the button and the top of the page"
      }
    },
    {
      "type": "input",
      "key": "bottom",
      "templateOptions": {
        "type": "number",
        "label": "Move the button from bottom",
        "description": "Add space between the button and the bottom of the page"
      }
    },
    {
      "type": "input",
      "key": "left",
      "templateOptions": {
        "type": "number",
        "label": "Move the button from left",
        "description": "Add space between the button and the left of the page"
      }
    },
    {
      "type": "input",
      "key": "right",
      "templateOptions": {
        "type": "number",
        "label": "Move the button from right",
        "description": "Add space between the button and the right of the page"
      }
    }
  ],
  "showOn": {
    "menu": true,
    "market": true,
    "dragDrop": true
  },
  "images": {
    "list": "modules/floatbuttonlink/images/list.png",
    "screenshots": [
      "modules/floatbuttonlink/images/screenshot1.gif"
    ],
    "popover": "modules/floatbuttonlink/images/popover.png",
    "banner": "modules/floatbuttonlink/images/banner.png",
    "logo": "modules/floatbuttonlink/images/logo.png"
  }
}